{
  "type": "service_account",
  "project_id": "napoleongamesassignment",
  "private_key_id": "2dbbe59359d4d70df23ab7e0b6934f6b23de07fe",
  "private_key": "-----BEGIN PRIVATE KEY-----\nMIIEvwIBADANBgkqhkiG9w0BAQEFAASCBKkwggSlAgEAAoIBAQDZucyk4qprqVYt\nzmA8fdpceoDN7kP8l7nbwCMK8dOHH+bac5RocYWkJWV64mLg2am1NxmdVP+SrOPL\n7sv2VzUcBTJq+X2DFz77bX99uX5qKXqgy8nJzHMWx5UkdkRxDRRcz1oUI1RP4EaO\ntx45l29UZ5OFWSM7k78Ut3A/xJQh/Jg2gnOtTN7Yy/sbL9AAFSiX9I2E/lZuFoJN\nGZFI34S05cG/13TMkhNvCj2sImc4/+pRwCfq/Gd032lcTSXCIUvSArui/8duG++S\nMZUl1ds9LejketpqF/59muvnLWHa+gDzhLqg0RMjiTeIIq0iz8oHO9bQARIOhbEk\n5GGe+NXpAgMBAAECggEABhCMWD1uFNCjM2Rvvs+coP3Sj6nm3+bUCQB5mWjyBO4J\nDqWwiRY8bD2UbY9XxL6bYQ5XWtAOzGWfdMNCkCqOsqicZmlrqxafLP64Uea0VD2y\nij8S8FmPDR/jEiBvOJzuJ8Wo0y3Gv/DV1kzYfS8wLTAzZj/84MB1TpzrdgNCQw4K\nfSkebjLCToxoMmXj7CwQehygUh+BLDKrzIsjQqeSgDm8sIoQo026B7Ry/2iS4AgZ\nFmb4tZXH+W1l3dDpb+pu6TZ1qkU27n8UYLouuumH1UmY4irvp919Hn/7/+2/RUFi\nFtoN0qGjYEVR+kdLyi/yPLIiuhXIvCKBwxO3AYcaZwKBgQD5jR7PFR4xaEH/1W+W\nhX6Z09ZIIvbGJfBATOEZkyDhZgnSk7Z9FcrIrl59l5ZJ57sxexaXr7qF2dIRtApJ\nzegnsEDvxVxFbBrWOh6QUkAQ9W6Ie9cASEU6Y0IzEa7V0ChD//fP9LbFY9cEWyIo\nGlSNFR9josCVi5JhN9ON8i9YowKBgQDfWiQafPM3h0wabp4IP1cmeetOCuXLpKgd\nyj0fdfYCWJJ2df9JR4VDrimnR011pqz4b3DSjhFZ9/ng6vlpDh1mF5urXnZA6LCx\nCS7uhAj1kYVvcmlmC4FufZ5rS7+WoTNLL/jNsAjp1//bBh5PZTbQUDoe3T74Egbj\nuPix2BrEAwKBgQDauihA1X+rSnheplKyGbvHVHdCrvKg5mvX0AqUgfKV3PvLCBEx\nPcKJdtv3NMBTcrsOOZapySqxWyPWxHkoC0PqVX/1KIUhjAlRr4tOb+kbdCM3mWPv\nKWkULh+950fYvCQuxdINAa6ZAFNbzAz6HWnyZosmp2YpLTZV47qXdaiuBQKBgQCX\ntj73zw/WFAzZl3G44G1uMTpoFHbq0LlxIsJJ8HJePZOe65+wQuh+hHq+qWwwEjtD\ntU7Jdr7Kgeo1oOYxOek2Q6r1yIBCrsv2NOqwEPeU9nfQr8JwEjikuKc28oj85BpX\nZAp4jK5BSPr95zYHcBS/gv83n8j58CTF4grrooLryQKBgQCRdHSf7TUk8KEOBtO5\ndz6OCoM1WLRaMM21ra0OJOT4pS5tXcEOdlvH6T8pabsMWXOhBDNuFHAYSDXQLhSO\nA7XIGCwuEPKJdQSKZ5Xd41PPusXC9Ysa+Q8e+mV6A5OVeRDHsO/gDJVeWv6cx7zv\n/dJbpDCocf0H7Pj4QvEdMFaB4A==\n-----END PRIVATE KEY-----\n",
  "client_email": "myserviceaccount@napoleongamesassignment.iam.gserviceaccount.com",
  "client_id": "102792766238983666520",
  "auth_uri": "https://accounts.google.com/o/oauth2/auth",
  "token_uri": "https://oauth2.googleapis.com/token",
  "auth_provider_x509_cert_url": "https://www.googleapis.com/oauth2/v1/certs",
  "client_x509_cert_url": "https://www.googleapis.com/robot/v1/metadata/x509/myserviceaccount%40napoleongamesassignment.iam.gserviceaccount.com"
}
